…
``` r
y=DM[,4]
X=DM[,-4]
Model3=with(M.imp,lm(y~ratio+age+waist,data=X))
```

``` r
#Model3=step(Model3)
summary(Model3)
```

    ## # A tibble: 80 x 5
    ##    term        estimate std.error statistic       p.value
    ##    <chr>          <dbl>     <dbl>     <dbl>         <dbl>
    ##  1 (Intercept)   0.791    0.713        1.11 0.268        
    ##  2 ratio         0.319    0.0626       5.10 0.000000541  
    ##  3 age           0.0384   0.00635      6.05 0.00000000355
    ##  4 waist         0.0414   0.0189       2.19 0.0292       
    ##  5 (Intercept)   0.791    0.713        1.11 0.268        
    ##  6 ratio         0.319    0.0626       5.10 0.000000541  
    ##  7 age           0.0384   0.00635      6.05 0.00000000355
    ##  8 waist         0.0414   0.0189       2.19 0.0292       
    ##  9 (Intercept)   0.791    0.713        1.11 0.268        
    ## 10 ratio         0.319    0.0626       5.10 0.000000541  
    ## # ... with 70 more rows
…
